[gd_scene load_steps=6 format=2]

[ext_resource path="res://assets/Key.png" type="Texture" id=1]
[ext_resource path="res://key.gd" type="Script" id=2]
[ext_resource path="res://assets/sfx/key_collected.wav" type="AudioStream" id=3]

[sub_resource type="RectangleShape2D" id=3]
extents = Vector2( 8.5, 11.5 )

[sub_resource type="RectangleShape2D" id=4]
extents = Vector2( 8.5, 11.5 )

[node name="key" type="KinematicBody2D" groups=["action_go", "key"]]
collision_layer = 2
collision_mask = 0
script = ExtResource( 2 )

[node name="Sprite" type="Sprite" parent="."]
texture = ExtResource( 1 )

[node name="CollisionShape2D" type="CollisionShape2D" parent="."]
visible = false
position = Vector2( 0.5, -0.5 )
shape = SubResource( 3 )

[node name="PlatformDetector" type="RayCast2D" parent="."]
enabled = true
cast_to = Vector2( 0, 6 )
collision_mask = 8

[node name="PlayerDetector" type="Area2D" parent="."]
collision_layer = 0

[node name="CollisionShape2D" type="CollisionShape2D" parent="PlayerDetector"]
position = Vector2( 0.5, -0.5 )
shape = SubResource( 4 )

[node name="sfx_collected" type="AudioStreamPlayer" parent="."]
stream = ExtResource( 3 )

[connection signal="body_entered" from="PlayerDetector" to="." method="_on_PlayerDetector_body_entered"]
