[gd_scene load_steps=3 format=2]

[ext_resource path="res://assets/platform.png" type="Texture" id=1]

[sub_resource type="RectangleShape2D" id=1]
extents = Vector2( 48, 6 )

[node name="platform" type="StaticBody2D" groups=["staticbodies"]]
collision_layer = 8
collision_mask = 3

[node name="Sprite" type="Sprite" parent="."]
scale = Vector2( 12, 1 )
texture = ExtResource( 1 )
region_enabled = true
region_rect = Rect2( 0, 0, 8, 11 )

[node name="CollisionShape2D" type="CollisionShape2D" parent="."]
shape = SubResource( 1 )
